|s                                                                                                                          |
|                                                                                                                          f|
|  |                           |                   |            |                   |                                       |
|   |                           |                   |            |                   |                                      |
|    |                           |         k         |            |         k         |                                     |
|     |                           |                   |            |                   |                                    |
|      |                           |                   |            |                   |                                   |
|       |                           |                   |            |                   |                                  |
|        |                           |                                |                                                  b  |
|         |                           |                                |                                                    |
|          |                           |                                |                                                   |
|           |                           |                                |                                                  |
|            |                           |                                |                                                 |
|             |         |                 |                                |                                                |
|              |         |       k         |                      k         |                                               |
|               |         |                 |                                |                                              |
|                |         |                 |                                |                                             |
|                 |         |                 |                                |                                            |
|                  |                           |                                |                                           |
|                   |                           |-------------                   |----------------                          |
|                    |                                                                                                      |
|                     |                                                                                                     |
|                      |                                                                                                    |
|                                                                                                  k                        |
|         k                                                                                                                 |
|                                                                                                                           |
|                     |                                                                                                     |
|                      |                                                                                                    |
|                                                                                                                           |
|                                                                                                                           |
|                                                                                                                           |