    |   --------   |          |             ||        |                         ------------
    |              |          |             ||        |                                    |
----------- ------------- ---------- ------------ ----------- ----------------- ------------
| s     b   mmmm      mm                m    mm                     |                   |   
-               mmmmmmm mm              m  mm                       |                   |   
-                     mmmmmmmmmmmmm     mmm                                   k         |   
-     mmmmmmmmmmmm                             mmmm                 |                   |   
- mmmmm    mm                           mmmmmmmmmm                  |       --------    |   
|-----------------------------------------------------------------| |--------      ---| |---
------------------------------------------------------------------- |------          -- |---
|                    mmmmmmmmmmmm                                   |                   |   
-                   mm    bbb    mm                                 |           k       |   
-                   mmmm       mmmmm                                |                   |   
------------------| |------------------------|  ----------------------------         -------
|-----------------| |------------------------|  --------------------|--------       ----|---
------------------| |------------------------|  ------------------------------     ---------
|t-----------              -------------------                      |         |||||         
              -----------                         ----------------- | ----------------- | - 
------------  |         | -----------   --------------------------- |------------------ |---
