                                                                                                        |
                                                                                                        |
                                                                                                        |
                               t-----                                                                   |
                            ----    ----                                                                |
                           ----        ----                                   -  --                     |
                          ----         ----                               ----    ----                  |
                          ----    s      ----                            ----        ----               |
           -----           ----         ----                            ----         ----               |
       ----    ----         ----       ----                             ----     k     ----             |
      ----        ----        ----   ----                                ----         ----              |
     ----         ----            -  --                                   ----       ----               |
     ----     k     ----       ----    ----                                 ---    ----                 |
      ----         ----          ----     ----                                    ---                   |
       ----       ----             ----      ----                                                       |
         ---    ----                  ----     -----                                                    |
               ---                        ----    ----                       -  --                      |
         ----    ----                    ----        ----                ----    ----                   |
        ----        ----                ----         ----               ----        ----                |
       ----         ----                ----           ----      ----- ----         ----   --           |
       ----     k     ----               ----         ----          -- ----     k     ---- -            |
        ----         ----                 ----       ----               ----         ----               |
         ----       ----                    ----   ----                  ----       ----                |
           ----   ----                            --                       ---    ----                  |
                 ---                                                             ---                    |
                                                                                                        |
                                                                                                        |
                                                                                                        |
---------------------------------------------------------------------------------------------------------
